lab3/lab3/b08505045_lab3/codes/CPU.vcd
$date
	Mon Jun 12 00:54:37 2023
$end
$version
	Icarus Verilog
$end
$timescale
	1s
$end
$scope module TestBench $end
$var parameter 32 ! num_cycles $end
$var reg 1 " Clk $end
$var reg 1 # Reset $end
$var integer 32 $ counter [31:0] $end
$var integer 32 % i [31:0] $end
$var integer 32 & outfile [31:0] $end
$scope module CPU $end
$var wire 1 " clk_i $end
$var wire 1 # rst_i $end
$var wire 32 ' sign_extend_out [31:0] $end
$var wire 32 ( reserved_addr_out [31:0] $end
$var wire 32 ) reg_data_out_2 [31:0] $end
$var wire 32 * reg_data_out_1 [31:0] $end
$var wire 1 + predict_out $end
$var wire 32 , pc_out [31:0] $end
$var wire 32 - instruction_memory_out [31:0] $end
$var wire 2 . forward_B_out [1:0] $end
$var wire 2 / forward_A_out [1:0] $end
$var wire 32 0 data_memory_out [31:0] $end
$var wire 1 1 control_regwrite_out $end
$var wire 1 2 control_alusrc_out $end
$var wire 2 3 control_aluop_out [1:0] $end
$var wire 1 4 control_MemtoReg_out $end
$var wire 1 5 control_MemWrite_out $end
$var wire 1 6 control_MemRead_out $end
$var wire 1 7 control_Branch_out $end
$var wire 1 8 alu_zero_out $end
$var wire 32 9 alu_res_out [31:0] $end
$var wire 4 : alu_control_out [3:0] $end
$var wire 32 ; WB_PReg_data_mem_out [31:0] $end
$var wire 32 < WB_PReg_data_ALU_out [31:0] $end
$var wire 1 = WB_PReg_RegWrite_out $end
$var wire 5 > WB_PReg_Rd_out [4:0] $end
$var wire 1 ? WB_PReg_MemtoReg_out $end
$var wire 32 @ MUX_WB_out [31:0] $end
$var wire 32 A MUX_PCSrc2_out [31:0] $end
$var wire 32 B MUX_PCSrc1_out [31:0] $end
$var wire 32 C MUX_ForwardB_data_out [31:0] $end
$var wire 32 D MUX_ForwardA_data_out [31:0] $end
$var wire 32 E MUX_ALUSrc_data_out [31:0] $end
$var wire 32 F MEM_PReg_data_2_out [31:0] $end
$var wire 1 G MEM_PReg_RegWrite_out $end
$var wire 5 H MEM_PReg_Rd_out [4:0] $end
$var wire 1 I MEM_PReg_MemtoReg_out $end
$var wire 1 J MEM_PReg_MemWrite_out $end
$var wire 1 K MEM_PReg_MemRead_out $end
$var wire 32 L MEM_PReg_ALU_result_out [31:0] $end
$var wire 1 M IFID_flush_out $end
$var wire 32 N ID_PReg_instr_out [31:0] $end
$var wire 32 O ID_PReg_PC_out [31:0] $end
$var wire 1 P IDEX_flush_out $end
$var wire 1 Q Hazard_PC_write_out $end
$var wire 1 R Hazard_NoOp_out $end
$var wire 1 S Hazard_IF_ID_write_out $end
$var wire 32 T EX_PReg_immi_out [31:0] $end
$var wire 10 U EX_PReg_funct_out [9:0] $end
$var wire 32 V EX_PReg_data2_out [31:0] $end
$var wire 32 W EX_PReg_data1_out [31:0] $end
$var wire 32 X EX_PReg_addr_out [31:0] $end
$var wire 5 Y EX_PReg_Rs2_out [4:0] $end
$var wire 5 Z EX_PReg_Rs1_out [4:0] $end
$var wire 1 [ EX_PReg_RegWrite_out $end
$var wire 5 \ EX_PReg_Rd_out [4:0] $end
$var wire 1 ] EX_PReg_MemtoReg_out $end
$var wire 1 ^ EX_PReg_MemWrite_out $end
$var wire 1 _ EX_PReg_MemRead_out $end
$var wire 1 ` EX_PReg_Branch_out $end
$var wire 1 a EX_PReg_ALUSrc_out $end
$var wire 2 b EX_PReg_ALUOp_out [1:0] $end
$var wire 32 c Branch_addr_out [31:0] $end
$var wire 32 d Add_PC_out [31:0] $end
$scope module ALU $end
$var wire 32 e data_2 [31:0] $end
$var wire 32 f data_1 [31:0] $end
$var wire 4 g alu_control [3:0] $end
$var parameter 32 h Width $end
$var reg 32 i data_o [31:0] $end
$var reg 1 8 zero $end
$upscope $end
$scope module ALU_Control $end
$var wire 3 j funct3 [2:0] $end
$var wire 7 k funct7 [6:0] $end
$var wire 2 l ALUOp [1:0] $end
$var reg 4 m alu_control [3:0] $end
$upscope $end
$scope module Add_PC $end
$var wire 32 n data_2 [31:0] $end
$var wire 32 o data_out [31:0] $end
$var wire 32 p data_1 [31:0] $end
$upscope $end
$scope module Adder_Branch_addr $end
$var wire 32 q data_1 [31:0] $end
$var wire 32 r data_out [31:0] $end
$var wire 32 s data_2 [31:0] $end
$upscope $end
$scope module Control $end
$var wire 7 t instr_i [6:0] $end
$var wire 1 R NoOp $end
$var reg 2 u ALUOp [1:0] $end
$var reg 1 2 ALUSrc $end
$var reg 1 7 Branch $end
$var reg 1 6 MemRead $end
$var reg 1 5 MemWrite $end
$var reg 1 4 MemtoReg $end
$var reg 1 1 RegWrite $end
$upscope $end
$scope module Data_Memory $end
$var wire 1 " clk_i $end
$var wire 32 v data_o [31:0] $end
$var wire 32 w data_i [31:0] $end
$var wire 32 x addr_i [31:0] $end
$var wire 1 J MemWrite_i $end
$var wire 1 K MemRead_i $end
$upscope $end
$scope module Flush_Control $end
$var wire 1 P IDEX_flush $end
$var wire 1 7 IFID_branch $end
$var wire 1 M IFID_flush $end
$var wire 1 8 result $end
$var wire 1 + predict $end
$var wire 1 ` IDEX_branch $end
$upscope $end
$scope module Forwarding_Unit $end
$var wire 1 = WB_RegWrtie $end
$var wire 5 y WB_Rd [4:0] $end
$var wire 1 G MEM_RegWrite $end
$var wire 5 z MEM_Rd [4:0] $end
$var wire 5 { EX_Rs2 [4:0] $end
$var wire 5 | EX_Rs1 [4:0] $end
$var reg 2 } forward_A [1:0] $end
$var reg 2 ~ forward_B [1:0] $end
$upscope $end
$scope module Hazard_Detection_Unit $end
$var wire 5 !" ID_Rs1 [4:0] $end
$var wire 5 "" ID_Rs2 [4:0] $end
$var wire 5 #" EX_Rd [4:0] $end
$var wire 1 _ EX_MemRead $end
$var reg 1 S IF_ID_write $end
$var reg 1 R NoOp $end
$var reg 1 Q PC_write $end
$upscope $end
$scope module ID_EX $end
$var wire 2 $" ALUOp_in [1:0] $end
$var wire 1 2 ALUSrc_in $end
$var wire 1 7 Branch_in $end
$var wire 1 6 MemRead_in $end
$var wire 1 5 MemWrite_in $end
$var wire 1 4 MemtoReg_in $end
$var wire 5 %" Rd_in [4:0] $end
$var wire 1 1 RegWrite_in $end
$var wire 5 &" Rs1_in [4:0] $end
$var wire 5 '" Rs2_in [4:0] $end
$var wire 1 " clk $end
$var wire 1 P flush_i $end
$var wire 3 (" funct3_in [2:0] $end
$var wire 7 )" funct7_in [6:0] $end
$var wire 1 # rst $end
$var wire 32 *" immi_in [31:0] $end
$var wire 32 +" data2_in [31:0] $end
$var wire 32 ," data1_in [31:0] $end
$var wire 32 -" addr_in [31:0] $end
$var reg 2 ." ALUOp_out [1:0] $end
$var reg 1 a ALUSrc_out $end
$var reg 1 ` Branch_o $end
$var reg 1 _ MemRead_out $end
$var reg 1 ^ MemWrite_out $end
$var reg 1 ] MemtoReg_out $end
$var reg 5 /" Rd_out [4:0] $end
$var reg 1 [ RegWrite_out $end
$var reg 5 0" Rs1_out [4:0] $end
$var reg 5 1" Rs2_out [4:0] $end
$var reg 32 2" addr_out [31:0] $end
$var reg 32 3" data1_out [31:0] $end
$var reg 32 4" data2_out [31:0] $end
$var reg 10 5" funct_out [9:0] $end
$var reg 32 6" immi_out [31:0] $end
$upscope $end
$scope module IF_ID $end
$var wire 1 S Write $end
$var wire 1 " clk $end
$var wire 1 M flush_i $end
$var wire 1 # rst $end
$var wire 32 7" instr_in [31:0] $end
$var wire 32 8" PC_in [31:0] $end
$var reg 32 9" PC_out [31:0] $end
$var reg 32 :" instr_out [31:0] $end
$upscope $end
$scope module Instruction_Memory $end
$var wire 32 ;" instr_o [31:0] $end
$var wire 32 <" addr_i [31:0] $end
$upscope $end
$scope module MEM_Pipeline_Reg $end
$var wire 32 =" ALU_result_in [31:0] $end
$var wire 1 _ MemRead_in $end
$var wire 1 ^ MemWrite_in $end
$var wire 1 ] MemtoReg_in $end
$var wire 5 >" Rd_in [4:0] $end
$var wire 1 [ RegWrite_in $end
$var wire 1 " clk $end
$var wire 1 # rst $end
$var wire 32 ?" data_2_in [31:0] $end
$var reg 32 @" ALU_result_out [31:0] $end
$var reg 1 K MemRead_out $end
$var reg 1 J MemWrite_out $end
$var reg 1 I MemtoReg_out $end
$var reg 5 A" Rd_out [4:0] $end
$var reg 1 G RegWrite_out $end
$var reg 32 B" data_2_out [31:0] $end
$upscope $end
$scope module MUX_ALUSrc $end
$var wire 1 a Control $end
$var wire 32 C" data_2 [31:0] $end
$var wire 32 D" data_1 [31:0] $end
$var reg 32 E" data_out [31:0] $end
$upscope $end
$scope module MUX_ForwardA $end
$var wire 2 F" Control [1:0] $end
$var wire 32 G" data_1 [31:0] $end
$var wire 32 H" data_3 [31:0] $end
$var wire 32 I" data_2 [31:0] $end
$var reg 32 J" data_out [31:0] $end
$upscope $end
$scope module MUX_ForwardB $end
$var wire 2 K" Control [1:0] $end
$var wire 32 L" data_1 [31:0] $end
$var wire 32 M" data_3 [31:0] $end
$var wire 32 N" data_2 [31:0] $end
$var reg 32 O" data_out [31:0] $end
$upscope $end
$scope module MUX_PCSrc1 $end
$var wire 1 M Control $end
$var wire 32 P" data_1 [31:0] $end
$var wire 32 Q" data_2 [31:0] $end
$var reg 32 R" data_out [31:0] $end
$upscope $end
$scope module MUX_PCSrc2 $end
$var wire 1 P Control $end
$var wire 32 S" data_1 [31:0] $end
$var wire 32 T" data_2 [31:0] $end
$var reg 32 U" data_out [31:0] $end
$upscope $end
$scope module MUX_WB $end
$var wire 32 V" data_2 [31:0] $end
$var wire 32 W" data_1 [31:0] $end
$var wire 1 ? Control $end
$var reg 32 X" data_out [31:0] $end
$upscope $end
$scope module PC $end
$var wire 1 Q PCWrite_i $end
$var wire 1 " clk_i $end
$var wire 32 Y" pc_i [31:0] $end
$var wire 1 # rst_i $end
$var reg 32 Z" pc_o [31:0] $end
$upscope $end
$scope module Registers $end
$var wire 32 [" RDdata_i [31:0] $end
$var wire 5 \" RS1addr_i [4:0] $end
$var wire 5 ]" RS2addr_i [4:0] $end
$var wire 1 " clk_i $end
$var wire 1 # rst_i $end
$var wire 1 = RegWrite_i $end
$var wire 32 ^" RS2data_o [31:0] $end
$var wire 32 _" RS1data_o [31:0] $end
$var wire 5 `" RDaddr_i [4:0] $end
$var integer 32 a" i [31:0] $end
$upscope $end
$scope module Sign_Extend $end
$var wire 3 b" funct3 [2:0] $end
$var wire 12 c" immi_1 [11:0] $end
$var wire 5 d" immi_2 [4:0] $end
$var wire 7 e" opcode [6:0] $end
$var reg 32 f" extend_immi [31:0] $end
$upscope $end
$scope module WB_Pipeline_Reg $end
$var wire 1 I MemtoReg_in $end
$var wire 5 g" Rd_in [4:0] $end
$var wire 1 G RegWrite_in $end
$var wire 1 " clk $end
$var wire 32 h" data_ALU_in [31:0] $end
$var wire 32 i" data_mem_in [31:0] $end
$var wire 1 # rst $end
$var reg 1 ? MemtoReg_out $end
$var reg 5 j" Rd_out [4:0] $end
$var reg 1 = RegWrite_out $end
$var reg 32 k" data_ALU_out [31:0] $end
$var reg 32 l" data_mem_out [31:0] $end
$upscope $end
$scope module branch_predictor $end
$var wire 32 m" addr_1 [31:0] $end
$var wire 32 n" addr_2 [31:0] $end
$var wire 1 " clk_i $end
$var wire 1 ` is_branch $end
$var wire 1 8 result $end
$var wire 1 # rst_i $end
$var wire 32 o" reserved_addr [31:0] $end
$var wire 1 + predict_o $end
$var reg 2 p" state [1:0] $end
$upscope $end
$upscope $end
$upscope $end
$enddefinitions $end
$comment Show the parameter values. $end
$dumpall
b100000 h
b1000000 !
$end
#0
$dumpvars
b11 p"
bx o"
bx n"
bx m"
bx l"
bx k"
bx j"
bx i"
bx h"
bx g"
bx f"
bx e"
bx d"
bx c"
bx b"
bx a"
bx `"
bx _"
bx ^"
bx ]"
bx \"
bx ["
bx Z"
bx Y"
bx X"
bx W"
bx V"
bx U"
bx T"
bx S"
bx R"
bx Q"
bx P"
bx O"
bx N"
bx M"
bx L"
bx K"
bx J"
bx I"
bx H"
bx G"
bx F"
bx E"
bx D"
bx C"
bx B"
bx A"
bx @"
bx ?"
bx >"
bx ="
bx <"
bx ;"
bx :"
bx 9"
bx 8"
bx 7"
bx 6"
bx 5"
bx 4"
bx 3"
bx 2"
bx 1"
bx 0"
bx /"
bx ."
bx -"
bx ,"
bx +"
bx *"
bx )"
bx ("
bx '"
bx &"
bx %"
bx $"
bx #"
bx ""
bx !"
bx ~
bx }
bx |
bx {
bx z
bx y
bx x
bx w
bx v
bx u
bx t
bx s
bx r
bx0 q
bx p
bx o
b100 n
bx m
bx l
bx k
bx j
bx i
bx g
bx f
bx e
bx d
bx c
bx b
xa
x`
x_
x^
x]
bx \
x[
bx Z
bx Y
bx X
bx W
bx V
bx U
bx T
xS
xR
xQ
xP
bx O
bx N
xM
bx L
xK
xJ
xI
bx H
xG
bx F
bx E
bx D
bx C
bx B
bx A
bx @
x?
bx >
x=
bx <
bx ;
bx :
bx 9
x8
x7
x6
x5
x4
bx 3
x2
x1
bx 0
bx /
bx .
bx -
bx ,
1+
bx *
bx )
bx (
bx '
b11 &
b100000 %
b0 $
1#
0"
$end
#6
b100 A
b100 U"
b100 Y"
b100 B
b100 R"
b100 S"
0M
07
05
06
04
01
02
b0 3
b0 u
b0 $"
b0 9
b0 i
b0 ="
08
b0 )
b0 +"
b0 ^"
b0 *
b0 ,"
b0 _"
b110000010011 -
b110000010011 7"
b110000010011 ;"
b100 (
b100 -"
b100 o"
b0 %"
b0 '"
b0 &"
b0 ("
b0 )"
b0 d"
b0 c"
b0 e"
b0 b"
b0 ""
b0 !"
b0 t
b0 ]"
b0 \"
b0 k
b0 j
0P
b0 E
b0 e
b0 E"
b10 :
b10 g
b10 m
0R
1S
1Q
b0 D
b0 f
b0 J"
b0 C
b0 ?"
b0 D"
b0 O"
b0 0
b0 v
b0 i"
b0 @
b0 I"
b0 N"
b0 X"
b0 ["
b0 .
b0 ~
b0 K"
b0 /
b0 }
b0 F"
b100 d
b100 o
b100 P"
b0 ,
b0 p
b0 8"
b0 <"
b0 Z"
b0 O
b0 s
b0 9"
b0 m"
b0 N
b0 :"
b0 \
b0 #"
b0 /"
b0 >"
b0 Y
b0 {
b0 1"
b0 Z
b0 |
b0 0"
b0 U
b0 5"
b0 T
b0 6"
b0 C"
b0 V
b0 4"
b0 L"
b0 W
b0 3"
b0 G"
b0 X
b0 2"
b0 T"
0`
0a
b0 b
b0 l
b0 ."
0^
0_
0]
0[
b0 H
b0 z
b0 A"
b0 g"
b0 F
b0 w
b0 B"
b0 L
b0 x
b0 @"
b0 H"
b0 M"
b0 h"
0J
0K
0I
0G
b0 >
b0 y
b0 `"
b0 j"
b0 ;
b0 V"
b0 l"
b0 <
b0 W"
b0 k"
0?
0=
b100000 a"
0#
#12
1#
#25
b0 c
b0 r
b0 Q"
b0 n"
b0 q
b0 '
b0 *"
b0 f"
11
12
b1000 A
b1000 U"
b1000 Y"
b11000 %"
b11000 d"
b10011 e"
b10011 t
b10000000000110100010011 -
b10000000000110100010011 7"
b10000000000110100010011 ;"
b1000 B
b1000 R"
b1000 S"
bx T
bx 6"
bx C"
b100 X
b100 2"
b100 T"
b110000010011 N
b110000010011 :"
b1000 d
b1000 o
b1000 P"
b100 ,
b100 p
b100 8"
b100 <"
b100 Z"
b1 $
1"
#50
0"
#75
b1000 q
b1100 A
b1100 U"
b1100 Y"
b100 '
b100 *"
b100 f"
b10000000000111000010011 -
b10000000000111000010011 7"
b10000000000111000010011 ;"
b1000 (
b1000 -"
b1000 o"
b1100 B
b1100 R"
b1100 S"
b11010 %"
b100 '"
b11010 d"
b100 c"
b100 ""
b100 ]"
b1100 d
b1100 o
b1100 P"
b1000 ,
b1000 p
b1000 8"
b1000 <"
b1000 Z"
b1100 c
b1100 r
b1100 Q"
b1100 n"
b100 O
b100 s
b100 9"
b100 m"
b10000000000110100010011 N
b10000000000110100010011 :"
b11000 \
b11000 #"
b11000 /"
b11000 >"
b0 T
b0 6"
b0 C"
1a
1[
b10 $
1"
#100
0"
#125
b100 9
b100 i
b100 ="
b100 E
b100 e
b100 E"
b10000 A
b10000 U"
b10000 Y"
b1100 (
b1100 -"
b1100 o"
b11100 %"
b11100 d"
b11111111111100000000011110010011 -
b11111111111100000000011110010011 7"
b11111111111100000000011110010011 ;"
b10000 B
b10000 R"
b10000 S"
b11000 H
b11000 z
b11000 A"
b11000 g"
1G
b11010 \
b11010 #"
b11010 /"
b11010 >"
b100 Y
b100 {
b100 1"
b100 T
b100 6"
b100 C"
b1000 X
b1000 2"
b1000 T"
b10000 c
b10000 r
b10000 Q"
b10000 n"
b1000 O
b1000 s
b1000 9"
b1000 m"
b10000000000111000010011 N
b10000000000111000010011 :"
b10000 d
b10000 o
b10000 P"
b1100 ,
b1100 p
b1100 8"
b1100 <"
b1100 Z"
b11 $
1"
#150
0"
#175
b11111111111111111111111111111110 q
b10100 A
b10100 U"
b10100 Y"
b11111111111111111111111111111111 '
b11111111111111111111111111111111 *"
b11111111111111111111111111111111 f"
b111110 )
b111110 +"
b111110 ^"
b11110011010000110010110011 -
b11110011010000110010110011 7"
b11110011010000110010110011 ;"
b10000 (
b10000 -"
b10000 o"
b10100 B
b10100 R"
b10100 S"
b1111 %"
b11111 '"
b1111111 )"
b1111 d"
b111111111111 c"
b11111 ""
b11111 ]"
b10100 d
b10100 o
b10100 P"
b10000 ,
b10000 p
b10000 8"
b10000 <"
b10000 Z"
b1010 c
b1010 r
b1010 Q"
b1010 n"
b1100 O
b1100 s
b1100 9"
b1100 m"
b11111111111100000000011110010011 N
b11111111111100000000011110010011 :"
b11100 \
b11100 #"
b11100 /"
b11100 >"
b1100 X
b1100 2"
b1100 T"
b11010 H
b11010 z
b11010 A"
b11010 g"
b100 L
b100 x
b100 @"
b100 H"
b100 M"
b100 h"
b11000 >
b11000 y
b11000 `"
b11000 j"
1=
b100 $
1"
#200
0"
#225
b11111111111111111111111111111111 9
b11111111111111111111111111111111 i
b11111111111111111111111111111111 ="
02
b10 3
b10 u
b10 $"
b111000 )
b111000 +"
b111000 ^"
b100 *
b100 ,"
b100 _"
b100 @
b100 I"
b100 N"
b100 X"
b100 ["
b1111111 k
b11111111111111111111111111111111 E
b11111111111111111111111111111111 e
b11111111111111111111111111111111 E"
b111110 C
b111110 ?"
b111110 D"
b111110 O"
b11000 A
b11000 U"
b11000 Y"
b10100 (
b10100 -"
b10100 o"
b11001 %"
b11100 '"
b11010 &"
b1 )"
b11001 d"
b111100 c"
b110011 e"
b11100 ""
b11010 !"
b110011 t
b11100 ]"
b11010 \"
b11111111111111010000110100010011 -
b11111111111111010000110100010011 7"
b11111111111111010000110100010011 ;"
b11000 B
b11000 R"
b11000 S"
b11010 >
b11010 y
b11010 `"
b11010 j"
b100 <
b100 W"
b100 k"
b11100 H
b11100 z
b11100 A"
b11100 g"
b1111 \
b1111 #"
b1111 /"
b1111 >"
b11111 Y
b11111 {
b11111 1"
b1111111000 U
b1111111000 5"
b11111111111111111111111111111111 T
b11111111111111111111111111111111 6"
b11111111111111111111111111111111 C"
b111110 V
b111110 4"
b111110 L"
b10000 X
b10000 2"
b10000 T"
b1110 c
b1110 r
b1110 Q"
b1110 n"
b10000 O
b10000 s
b10000 9"
b10000 m"
b11110011010000110010110011 N
b11110011010000110010110011 :"
b11000 d
b11000 o
b11000 P"
b10100 ,
b10100 p
b10100 8"
b10100 <"
b10100 Z"
b101 $
1"
#250
0"
#275
b11100 A
b11100 U"
b11100 Y"
12
b0 3
b0 u
b0 $"
b111110 )
b111110 +"
b111110 ^"
b11 :
b11 g
b11 m
b10000 9
b10000 i
b10000 ="
b11001010110110000011 -
b11001010110110000011 7"
b11001010110110000011 ;"
b11000 (
b11000 -"
b11000 o"
b11100 B
b11100 R"
b11100 S"
b11010 %"
b11111 '"
b1111111 )"
b11010 d"
b111111111111 c"
b10011 e"
b11111 ""
b10011 t
b11111 ]"
b1 k
b100 E
b100 e
b100 E"
b100 D
b100 f
b100 J"
b100 C
b100 ?"
b100 D"
b100 O"
b1 .
b1 ~
b1 K"
b11100 d
b11100 o
b11100 P"
b11000 ,
b11000 p
b11000 8"
b11000 <"
b11000 Z"
b10010 c
b10010 r
b10010 Q"
b10010 n"
b10100 O
b10100 s
b10100 9"
b10100 m"
b11111111111111010000110100010011 N
b11111111111111010000110100010011 :"
b11001 \
b11001 #"
b11001 /"
b11001 >"
b11100 Y
b11100 {
b11100 1"
b11010 Z
b11010 |
b11010 0"
b1000 U
b1000 5"
b111000 V
b111000 4"
b111000 L"
b100 W
b100 3"
b100 G"
b10100 X
b10100 2"
b10100 T"
0a
b10 b
b10 l
b10 ."
b1111 H
b1111 z
b1111 A"
b1111 g"
b111110 F
b111110 w
b111110 B"
b11111111111111111111111111111111 L
b11111111111111111111111111111111 x
b11111111111111111111111111111111 @"
b11111111111111111111111111111111 H"
b11111111111111111111111111111111 M"
b11111111111111111111111111111111 h"
b11100 >
b11100 y
b11100 `"
b11100 j"
b110 $
1"
#300
0"
#325
b0 q
b111110 C
b111110 ?"
b111110 D"
b111110 O"
b11 9
b11 i
b11 ="
b0 '
b0 *"
b0 f"
16
14
b0 )
b0 +"
b0 ^"
b11111111111111111111111111100111 *
b11111111111111111111111111100111 ,"
b11111111111111111111111111100111 _"
b11111111111111111111111111111111 @
b11111111111111111111111111111111 I"
b11111111111111111111111111111111 N"
b11111111111111111111111111111111 X"
b11111111111111111111111111111111 ["
b0 .
b0 ~
b0 K"
b1111111 k
b100000 A
b100000 U"
b100000 Y"
b11111111111111111111111111111111 E
b11111111111111111111111111111111 e
b11111111111111111111111111111111 E"
b10 :
b10 g
b10 m
b11100 (
b11100 -"
b11100 o"
b11011 %"
b0 '"
b11001 &"
b10 ("
b0 )"
b11011 d"
b0 c"
b11 e"
b10 b"
b0 ""
b11001 !"
b11 t
b0 ]"
b11001 \"
b1101111000000110000110011 -
b1101111000000110000110011 7"
b1101111000000110000110011 ;"
b100000 B
b100000 R"
b100000 S"
b1111 >
b1111 y
b1111 `"
b1111 j"
b11111111111111111111111111111111 <
b11111111111111111111111111111111 W"
b11111111111111111111111111111111 k"
b11001 H
b11001 z
b11001 A"
b11001 g"
b100 F
b100 w
b100 B"
b10000 L
b10000 x
b10000 @"
b10000 H"
b10000 M"
b10000 h"
b11010 \
b11010 #"
b11010 /"
b11010 >"
b11111 Y
b11111 {
b11111 1"
b1111111000 U
b1111111000 5"
b111110 V
b111110 4"
b111110 L"
b11000 X
b11000 2"
b11000 T"
1a
b0 b
b0 l
b0 ."
b11000 c
b11000 r
b11000 Q"
b11000 n"
b11000 O
b11000 s
b11000 9"
b11000 m"
b11001010110110000011 N
b11001010110110000011 :"
b100000 d
b100000 o
b100000 P"
b11100 ,
b11100 p
b11100 8"
b11100 <"
b11100 Z"
b111 $
1"
#350
0"
#375
01
b100100 A
b100100 U"
b100100 Y"
1R
0S
0Q
06
04
02
b0 3
b0 u
b0 $"
b11111111111111111111111111100101 )
b11111111111111111111111111100101 +"
b11111111111111111111111111100101 ^"
b0 *
b0 ,"
b0 _"
b10000 9
b10000 i
b10000 ="
b111111010000010001100011 -
b111111010000010001100011 7"
b111111010000010001100011 ;"
b100000 (
b100000 -"
b100000 o"
b100100 B
b100100 R"
b100100 S"
b11000 %"
b11011 '"
b11000 &"
b0 ("
b11000 d"
b11011 c"
b110011 e"
b0 b"
b11011 ""
b11000 !"
b110011 t
b11011 ]"
b11000 \"
b0 k
b10 j
b0 E
b0 e
b0 E"
b10000 D
b10000 f
b10000 J"
b0 C
b0 ?"
b0 D"
b0 O"
b1 /
b1 }
b1 F"
b10000 @
b10000 I"
b10000 N"
b10000 X"
b10000 ["
b100100 d
b100100 o
b100100 P"
b100000 ,
b100000 p
b100000 8"
b100000 <"
b100000 Z"
b11100 c
b11100 r
b11100 Q"
b11100 n"
b11100 O
b11100 s
b11100 9"
b11100 m"
b1101111000000110000110011 N
b1101111000000110000110011 :"
b11011 \
b11011 #"
b11011 /"
b11011 >"
b0 Y
b0 {
b0 1"
b11001 Z
b11001 |
b11001 0"
b10 U
b10 5"
b0 T
b0 6"
b0 C"
b0 V
b0 4"
b0 L"
b11111111111111111111111111100111 W
b11111111111111111111111111100111 3"
b11111111111111111111111111100111 G"
b11100 X
b11100 2"
b11100 T"
1_
1]
b11010 H
b11010 z
b11010 A"
b11010 g"
b111110 F
b111110 w
b111110 B"
b11 L
b11 x
b11 @"
b11 H"
b11 M"
b11 h"
b11001 >
b11001 y
b11001 `"
b11001 j"
b10000 <
b10000 W"
b10000 k"
b1000 $
1"
#400
0"
#425
b10000 9
b10000 i
b10000 ="
b0 D
b0 f
b0 J"
b10000 E
b10000 e
b10000 E"
11
b10 3
b10 u
b10 $"
b11 @
b11 I"
b11 N"
b11 X"
b11 ["
b11101 0
b11101 v
b11101 i"
b10 .
b10 ~
b10 K"
b0 /
b0 }
b0 F"
b0 j
b10000 C
b10000 ?"
b10000 D"
b10000 O"
0R
1S
1Q
b11010 >
b11010 y
b11010 `"
b11010 j"
b11 <
b11 W"
b11 k"
b11011 H
b11011 z
b11011 A"
b11011 g"
b0 F
b0 w
b0 B"
b10000 L
b10000 x
b10000 @"
b10000 H"
b10000 M"
b10000 h"
1K
1I
b11000 \
b11000 #"
b11000 /"
b11000 >"
b11011 Y
b11011 {
b11011 1"
b11000 Z
b11000 |
b11000 0"
b0 U
b0 5"
b11111111111111111111111111100101 V
b11111111111111111111111111100101 4"
b11111111111111111111111111100101 L"
b0 W
b0 3"
b0 G"
b100000 X
b100000 2"
b100000 T"
0a
0_
0]
0[
b1001 $
1"
#450
0"
#475
1M
b11101 9
b11101 i
b11101 ="
b1000 q
b11101 E
b11101 e
b11101 E"
b101000 A
b101000 U"
b101000 Y"
b100 '
b100 *"
b100 f"
17
01
b1 3
b1 u
b1 $"
b11111111111111111111111111111111 )
b11111111111111111111111111111111 +"
b11111111111111111111111111111111 ^"
b11 *
b11 ,"
b11 _"
b11101 C
b11101 ?"
b11101 D"
b11101 O"
b11111110000000000000011011100011 -
b11111110000000000000011011100011 7"
b11111110000000000000011011100011 ;"
b100100 (
b100100 -"
b100100 o"
b101000 B
b101000 R"
b101000 S"
b1000 %"
b1111 '"
b11010 &"
b1000 d"
b1111 c"
b1100011 e"
b1111 ""
b11010 !"
b1100011 t
b1111 ]"
b11010 \"
b0 0
b0 v
b0 i"
b1 .
b1 ~
b1 K"
b11101 @
b11101 I"
b11101 N"
b11101 X"
b11101 ["
b101000 d
b101000 o
b101000 P"
b100100 ,
b100100 p
b100100 8"
b100100 <"
b100100 Z"
b101000 c
b101000 r
b101000 Q"
b101000 n"
b100000 O
b100000 s
b100000 9"
b100000 m"
b111111010000010001100011 N
b111111010000010001100011 :"
b10 b
b10 l
b10 ."
1[
b11000 H
b11000 z
b11000 A"
b11000 g"
b10000 F
b10000 w
b10000 B"
0K
0I
0G
b11011 >
b11011 y
b11011 `"
b11011 j"
b11101 ;
b11101 V"
b11101 l"
b10000 <
b10000 W"
b10000 k"
1?
b1010 $
1"
#500
0"
#525
b11111111111111111111111111111111 E
b11111111111111111111111111111111 e
b11111111111111111111111111111111 E"
b11111111111111111111111111111111 C
b11111111111111111111111111111111 ?"
b11111111111111111111111111111111 D"
b11111111111111111111111111111111 O"
07
b0 3
b0 u
b0 $"
b0 )
b0 +"
b0 ^"
b0 *
b0 ,"
b0 _"
b10000 @
b10000 I"
b10000 N"
b10000 X"
b10000 ["
b0 .
b0 ~
b0 K"
b11 D
b11 f
b11 J"
b100100 A
b100100 U"
b100100 Y"
1P
b1110 :
b1110 g
b1110 m
b100 (
b100 -"
b100 o"
b0 %"
b0 '"
b0 &"
b0 d"
b0 c"
b0 e"
b0 ""
b0 !"
b0 t
b0 ]"
b0 \"
b1100000000010111000100011 -
b1100000000010111000100011 7"
b1100000000010111000100011 ;"
b1000 B
b1000 R"
b1000 S"
b11000 >
b11000 y
b11000 `"
b11000 j"
b0 ;
b0 V"
b0 l"
0?
0=
b11101 F
b11101 w
b11101 B"
b11101 L
b11101 x
b11101 @"
b11101 H"
b11101 M"
b11101 h"
1G
b1000 \
b1000 #"
b1000 /"
b1000 >"
b1111 Y
b1111 {
b1111 1"
b11010 Z
b11010 |
b11010 0"
b100 T
b100 6"
b100 C"
b11111111111111111111111111111111 V
b11111111111111111111111111111111 4"
b11111111111111111111111111111111 L"
b11 W
b11 3"
b11 G"
b100100 X
b100100 2"
b100100 T"
1`
b1 b
b1 l
b1 ."
0[
b1000 c
b1000 r
b1000 Q"
b1000 n"
b0 O
b0 s
b0 9"
b0 m"
b0 N
b0 :"
b101100 d
b101100 o
b101100 P"
b101000 ,
b101000 p
b101000 8"
b101000 <"
b101000 Z"
b1011 $
1"
#550
0"
